{
    "key": "lunachicks-charts-for-jira-cloud",
    "name": "Lunachicks Charts for JIRA Cloud",
    "description": "Builds beautiful graphs by combining the power of multiple JQL queries with JavaScript charting libraries",
    "vendor": {
        "name": "AtlassianLabs",
        "url": "http://www.atlassian.com"
    },
    "baseUrl": "https://bitbucket.org/strax84mb/lunachick-dashboard-charts/raw",
    "authentication": {
        "type": "none"
    },
    "enableLicensing": false,
    "modules": {
        "jiraDashboardItems": [
            {
                "name" : {
                    "value" : "Lunachicks Chart for JIRA Cloud"
                },
                "url": "/5d4281e151e98c5a31794926e9b2374aaec51cd1/dist/build?component=addon",
                "cacheable": true,
                "key" : "dashboard-chart",
                "description" : {
                    "value" : "Build a fully customisable time series chart from flexible JQL queries"
                },
                "thumbnailUrl": "/5d4281e151e98c5a31794926e9b2374aaec51cd1/public/lunachick-dashboard-chart/thumbnail.png",
                "configurable" : true
            }
        ]
    },
    "scopes": ["READ", "WRITE"]
}